[
	{
		"id": 112,
		"origin_id": 1,
		"name": "S"
	},
	{
		"id": 113,
		"origin_id": 2,
		"name": "M"
	},
	{
		"id": 114,
		"origin_id": 4,
		"name": "L"
	},
	{
		"id": 115,
		"origin_id": 5,
		"name": "XS"
	},
	{
		"id": 116,
		"origin_id": 6,
		"name": "Free Size"
	},
	{
		"id": 117,
		"origin_id": 7,
		"name": "XL"
	},
	{
		"id": 118,
		"origin_id": 8,
		"name": "35"
	},
	{
		"id": 119,
		"origin_id": 9,
		"name": "36"
	},
	{
		"id": 120,
		"origin_id": 10,
		"name": "37"
	},
	{
		"id": 121,
		"origin_id": 11,
		"name": "38"
	},
	{
		"id": 122,
		"origin_id": 12,
		"name": "39"
	},
	{
		"id": 123,
		"origin_id": 17,
		"name": "40"
	},
	{
		"id": 124,
		"origin_id": 18,
		"name": "1-5"
	},
	{
		"id": 125,
		"origin_id": 20,
		"name": "11"
	},
	{
		"id": 126,
		"origin_id": 21,
		"name": "6"
	},
	{
		"id": 127,
		"origin_id": 22,
		"name": "5"
	},
	{
		"id": 128,
		"origin_id": 23,
		"name": "12"
	},
	{
		"id": 129,
		"origin_id": 24,
		"name": "9"
	},
	{
		"id": 130,
		"origin_id": 25,
		"name": "10"
	},
	{
		"id": 131,
		"origin_id": 26,
		"name": "1"
	},
	{
		"id": 132,
		"origin_id": 27,
		"name": "2"
	},
	{
		"id": 133,
		"origin_id": 28,
		"name": "3"
	},
	{
		"id": 134,
		"origin_id": 29,
		"name": "1-7"
	},
	{
		"id": 135,
		"origin_id": 30,
		"name": "4"
	},
	{
		"id": 136,
		"origin_id": 31,
		"name": "7"
	},
	{
		"id": 137,
		"origin_id": 32,
		"name": "Đặt may"
	},
	{
		"id": 138,
		"origin_id": 34,
		"name": "20\""
	},
	{
		"id": 139,
		"origin_id": 35,
		"name": "24\""
	},
	{
		"id": 140,
		"origin_id": 37,
		"name": "28\""
	},
	{
		"id": 141,
		"origin_id": 38,
		"name": "Bộ"
	},
	{
		"id": 142,
		"origin_id": 39,
		"name": "22\""
	},
	{
		"id": 143,
		"origin_id": 40,
		"name": "26\""
	},
	{
		"id": 144,
		"origin_id": 45,
		"name": "34"
	},
	{
		"id": 145,
		"origin_id": 46,
		"name": "33mm"
	},
	{
		"id": 146,
		"origin_id": 47,
		"name": "28mm"
	},
	{
		"id": 147,
		"origin_id": 48,
		"name": "14"
	},
	{
		"id": 148,
		"origin_id": 49,
		"name": "15"
	},
	{
		"id": 149,
		"origin_id": 50,
		"name": "16"
	},
	{
		"id": 150,
		"origin_id": 51,
		"name": "17"
	},
	{
		"id": 151,
		"origin_id": 52,
		"name": "6mm"
	},
	{
		"id": 152,
		"origin_id": 53,
		"name": "8mm"
	},
	{
		"id": 153,
		"origin_id": 54,
		"name": "9mm"
	},
	{
		"id": 154,
		"origin_id": 55,
		"name": "10mm"
	},
	{
		"id": 155,
		"origin_id": 56,
		"name": "11mm"
	},
	{
		"id": 156,
		"origin_id": 57,
		"name": "13mm"
	},
	{
		"id": 157,
		"origin_id": 58,
		"name": "14mm"
	},
	{
		"id": 158,
		"origin_id": 59,
		"name": "12mm"
	},
	{
		"id": 159,
		"origin_id": 60,
		"name": "7mm"
	},
	{
		"id": 160,
		"origin_id": 63,
		"name": "45cm"
	},
	{
		"id": 161,
		"origin_id": 64,
		"name": "18mm"
	},
	{
		"id": 162,
		"origin_id": 65,
		"name": "XXL"
	},
	{
		"id": 163,
		"origin_id": 66,
		"name": "15mm"
	},
	{
		"id": 164,
		"origin_id": 70,
		"name": "17mm"
	},
	{
		"id": 165,
		"origin_id": 72,
		"name": "36mm"
	},
	{
		"id": 166,
		"origin_id": 73,
		"name": "38mm"
	},
	{
		"id": 167,
		"origin_id": 74,
		"name": "40mm"
	},
	{
		"id": 168,
		"origin_id": 75,
		"name": "42mm"
	},
	{
		"id": 169,
		"origin_id": 76,
		"name": "50mm"
	},
	{
		"id": 170,
		"origin_id": 77,
		"name": "52mm"
	},
	{
		"id": 171,
		"origin_id": 78,
		"name": "54mm"
	},
	{
		"id": 172,
		"origin_id": 79,
		"name": "56mm"
	},
	{
		"id": 173,
		"origin_id": 80,
		"name": "8"
	},
	{
		"id": 174,
		"origin_id": 81,
		"name": "32"
	},
	{
		"id": 175,
		"origin_id": 86,
		"name": "32S"
	},
	{
		"id": 176,
		"origin_id": 87,
		"name": "34M"
	},
	{
		"id": 177,
		"origin_id": 88,
		"name": "36L"
	},
	{
		"id": 178,
		"origin_id": 89,
		"name": "34F"
	},
	{
		"id": 179,
		"origin_id": 90,
		"name": "32F"
	},
	{
		"id": 180,
		"origin_id": 91,
		"name": "36F"
	},
	{
		"id": 181,
		"origin_id": 92,
		"name": "Một cỡ"
	},
	{
		"id": 182,
		"origin_id": 93,
		"name": "16mm"
	},
	{
		"id": 183,
		"origin_id": 94,
		"name": "Chai"
	},
	{
		"id": 184,
		"origin_id": 95,
		"name": "Lọ"
	},
	{
		"id": 185,
		"origin_id": 96,
		"name": "Chiếc"
	},
	{
		"id": 186,
		"origin_id": 97,
		"name": "Tuýp"
	},
	{
		"id": 187,
		"origin_id": 98,
		"name": "Hộp"
	},
	{
		"id": 188,
		"origin_id": 101,
		"name": "20"
	},
	{
		"id": 189,
		"origin_id": 102,
		"name": "21"
	},
	{
		"id": 190,
		"origin_id": 103,
		"name": "22"
	},
	{
		"id": 191,
		"origin_id": 104,
		"name": "23"
	},
	{
		"id": 192,
		"origin_id": 105,
		"name": "24"
	},
	{
		"id": 193,
		"origin_id": 106,
		"name": "25"
	},
	{
		"id": 194,
		"origin_id": 107,
		"name": "26"
	},
	{
		"id": 195,
		"origin_id": 108,
		"name": "27"
	},
	{
		"id": 196,
		"origin_id": 110,
		"name": "28"
	},
	{
		"id": 197,
		"origin_id": 111,
		"name": "23mm"
	},
	{
		"id": 198,
		"origin_id": 112,
		"name": "20mm"
	},
	{
		"id": 199,
		"origin_id": 114,
		"name": "25mm"
	},
	{
		"id": 200,
		"origin_id": 119,
		"name": "19mm"
	},
	{
		"id": 201,
		"origin_id": 120,
		"name": "220mm"
	},
	{
		"id": 202,
		"origin_id": 121,
		"name": "55mm"
	},
	{
		"id": 203,
		"origin_id": 123,
		"name": "57mm"
	},
	{
		"id": 204,
		"origin_id": 124,
		"name": "58mm"
	},
	{
		"id": 205,
		"origin_id": 125,
		"name": "59mm"
	},
	{
		"id": 206,
		"origin_id": 126,
		"name": "60mm"
	},
	{
		"id": 207,
		"origin_id": 134,
		"name": "90"
	},
	{
		"id": 208,
		"origin_id": 135,
		"name": "100"
	},
	{
		"id": 209,
		"origin_id": 136,
		"name": "110"
	},
	{
		"id": 210,
		"origin_id": 137,
		"name": "120"
	},
	{
		"id": 211,
		"origin_id": 138,
		"name": "130"
	},
	{
		"id": 212,
		"origin_id": 139,
		"name": "140"
	},
	{
		"id": 213,
		"origin_id": 140,
		"name": "150"
	},
	{
		"id": 214,
		"origin_id": 141,
		"name": "160"
	},
	{
		"id": 215,
		"origin_id": 145,
		"name": "16,5mm"
	},
	{
		"id": 216,
		"origin_id": 146,
		"name": "17,5mm"
	},
	{
		"id": 217,
		"origin_id": 150,
		"name": "29"
	},
	{
		"id": 218,
		"origin_id": 151,
		"name": "30"
	},
	{
		"id": 219,
		"origin_id": 152,
		"name": "Đôi"
	},
	{
		"id": 220,
		"origin_id": 153,
		"name": "18"
	},
	{
		"id": 221,
		"origin_id": 154,
		"name": "19.5"
	},
	{
		"id": 222,
		"origin_id": 160,
		"name": "3XL"
	}]