[
    {
        "id": 1,
        "cid": 0,
        "name": "Kh\u00f4ng x\u00e1c \u0111\u1ecbnh",
        "status": "Y",
        "sub": 0
    },
    {
        "id": 2,
        "cid": 0,
        "name": "Cam",
        "status": "Y",
        "sub": 0
    },
    {
        "id": 3,
        "cid": 0,
        "name": "V\u00e0ng",
        "status": "Y",
        "sub": 0
    },
    {
        "id": 4,
        "cid": 0,
        "name": "\u0110\u1ecf",
        "status": "Y",
        "sub": 0
    },
    {
        "id": 5,
        "cid": 0,
        "name": "Xanh l\u00e1",
        "status": "Y",
        "sub": 0
    },
    {
        "id": 6,
        "cid": 0,
        "name": "Xanh d\u01b0\u01a1ng",
        "status": "Y",
        "sub": 0
    },
    {
        "id": 7,
        "cid": 0,
        "name": "T\u00edm",
        "status": "Y",
        "sub": 0
    },
    {
        "id": 8,
        "cid": 0,
        "name": "H\u1ed3ng",
        "status": "Y",
        "sub": 0
    },
    {
        "id": 9,
        "cid": 0,
        "name": "N\u00e2u",
        "status": "Y",
        "sub": 0
    },
    {
        "id": 10,
        "cid": 0,
        "name": "\u0110en",
        "status": "Y",
        "sub": 0
    },
    {
        "id": 11,
        "cid": 0,
        "name": "Tr\u1eafng",
        "status": "Y",
        "sub": 0
    },
    {
        "id": 12,
        "cid": 0,
        "name": "Kh\u00e1c",
        "status": "Y",
        "sub": 0
    },
    {
        "id": 13,
        "cid": 0,
        "name": "Xanh c\u1ed5 v\u1ecbt",
        "status": "Y",
        "sub": 0
    },
    {
        "id": 14,
        "cid": 0,
        "name": "Ghi",
        "status": "Y",
        "sub": 0
    },
    {
        "id": 15,
        "cid": 0,
        "name": "Be",
        "status": "Y",
        "sub": 0
    },
    {
        "id": 16,
        "cid": 0,
        "name": "Kem",
        "status": "Y",
        "sub": 0
    },
    {
        "id": 17,
        "cid": 0,
        "name": "Xanh",
        "status": "Y",
        "sub": 0
    },
    {
        "id": 18,
        "cid": 0,
        "name": "T\u00edm Than",
        "status": "Y",
        "sub": 0
    },
    {
        "id": 19,
        "cid": 1,
        "name": "khong xac dinh",
        "status": "Y",
        "sub": 1
    },
    {
        "id": 20,
        "cid": 2,
        "name": "cam",
        "status": "Y",
        "sub": 1
    },
    {
        "id": 23,
        "cid": 5,
        "name": "xanh la",
        "status": "Y",
        "sub": 1
    },
    {
        "id": 24,
        "cid": 6,
        "name": "xanh duong",
        "status": "Y",
        "sub": 1
    },
    {
        "id": 25,
        "cid": 7,
        "name": "tim",
        "status": "Y",
        "sub": 1
    },
    {
        "id": 26,
        "cid": 8,
        "name": "hong",
        "status": "Y",
        "sub": 1
    },
    {
        "id": 27,
        "cid": 9,
        "name": "nau",
        "status": "Y",
        "sub": 1
    },
    {
        "id": 28,
        "cid": 10,
        "name": "den",
        "status": "Y",
        "sub": 1
    },
    {
        "id": 29,
        "cid": 11,
        "name": "trang",
        "status": "Y",
        "sub": 1
    },
    {
        "id": 30,
        "cid": 12,
        "name": "khac",
        "status": "Y",
        "sub": 1
    },
    {
        "id": 31,
        "cid": 13,
        "name": "xanh co vit",
        "status": "Y",
        "sub": 1
    },
    {
        "id": 32,
        "cid": 14,
        "name": "ghi",
        "status": "Y",
        "sub": 1
    },
    {
        "id": 33,
        "cid": 15,
        "name": "be",
        "status": "Y",
        "sub": 1
    },
    {
        "id": 34,
        "cid": 16,
        "name": "kem",
        "status": "Y",
        "sub": 1
    },
    {
        "id": 35,
        "cid": 17,
        "name": "xanh",
        "status": "Y",
        "sub": 1
    },
    {
        "id": 36,
        "cid": 18,
        "name": "tim than",
        "status": "Y",
        "sub": 1
    },
    {
        "id": 46,
        "cid": 3,
        "name": "vang",
        "status": "Y",
        "sub": 1
    },
    {
        "id": 47,
        "cid": 4,
        "name": "do",
        "status": "Y",
        "sub": 1
    },
    {
        "id": 48,
        "cid": 4,
        "name": "red",
        "status": "Y",
        "sub": 1
    },
    {
        "id": 64,
        "cid": 0,
        "name": "testcolor",
        "status": "Y",
        "sub": 0
    }
]